Terminaux inutilisés dans la grammaire

   NEG


Grammaire

    0 $accept: programme $end

    1 programme: PROG corps

    2 corps: liste_declarations liste_instructions
    3      | liste_instructions

    4 liste_declarations: declaration PV
    5                   | liste_declarations declaration PV

    6 liste_instructions: DEBUT suite_liste_inst FIN

    7 suite_liste_inst: instruction PV
    8                 | suite_liste_inst instruction PV

    9 declaration: declaration_type
   10            | declaration_variable
   11            | declaration_procedure
   12            | declaration_fonction

   13 declaration_type: TYPE IDF DP suite_declaration_type

   14 suite_declaration_type: STRUCT liste_champs FSTRUCT
   15                       | TABLEAU dimension FLECHE nom_type

   16 dimension: CO liste_dimensions CF

   17 liste_dimensions: une_dimension
   18                 | liste_dimensions V une_dimension

   19 une_dimension: expression P_P expression

   20 liste_champs: un_champ
   21             | liste_champs PV un_champ

   22 un_champ: IDF DP nom_type

   23 nom_type: type_simple
   24         | IDF

   25 type_simple: ENTIER
   26            | REEL
   27            | BOOLEEN
   28            | CARACTERE
   29            | CHAINE CO CSTE_ENTIERE CF

   30 declaration_variable: VARIABLE IDF DP nom_type

   31 declaration_procedure: PROCEDURE IDF liste_parametres corps

   32 declaration_fonction: FONCTION IDF liste_parametres RETOURNE type_simple corps

   33 liste_parametres: %empty
   34                 | PO liste_param PF

   35 liste_param: un_param
   36            | liste_param PV un_param

   37 un_param: IDF DP type_simple

   38 instruction: affectation
   39            | condition
   40            | tant_que
   41            | appel
   42            | VIDE
   43            | RETOURNE resultat_retourne

   44 resultat_retourne: %empty
   45                  | expression

   46 appel: IDF liste_arguments

   47 liste_arguments: PO liste_args PF

   48 liste_args: %empty
   49           | un_arg
   50           | liste_args V un_arg

   51 un_arg: expression

   52 condition: SI eb ALORS liste_instructions SINON liste_instructions

   53 tant_que: TANT_QUE eb FAIRE liste_instructions

   54 affectation: variable OPAFF expression

   55 variable: IDF suite_variable

   56 suite_variable: CO liste_indices CF var_struct
   57               | var_struct

   58 var_struct: P variable
   59           | %empty

   60 liste_indices: ea
   61              | liste_indices V ea

   62 expression: ea
   63           | eb

   64 eb: eb OU eb1
   65   | eb1

   66 eb1: eb1 ET eb2
   67    | eb2

   68 eb2: NON eb3
   69    | eb3

   70 eb3: PO eb PF
   71    | VRAI
   72    | FAUX
   73    | comparaison

   74 comparaison: ea OPEG ea
   75            | ea OPDIF ea
   76            | ea OPINF ea
   77            | ea OPSUP ea
   78            | ea OPINFEG ea
   79            | ea OPSUPEG ea

   80 ea: ea PLUS ea1
   81   | ea MOINS ea1
   82   | ea1

   83 ea1: ea1 MULT ea2
   84    | ea1 DIV ea2
   85    | ea1 MOD ea2
   86    | ea2

   87 ea2: PO ea PF
   88    | CSTE_ENTIERE
   89    | CSTE_REELE
   90    | CHAINE
   91    | UN_CARACTERE
   92    | variable
   93    | appel


Terminaux, suivis des règles où ils apparaissent

$end (0) 0
error (256)
PROG (258) 1
PV (259) 4 5 7 8 21 36
DEBUT (260) 6
FIN (261) 6
TYPE (262) 13
IDF (263) 13 22 24 30 31 32 37 46 55
DP (264) 13 22 30 37
STRUCT (265) 14
FSTRUCT (266) 14
TABLEAU (267) 15
FLECHE (268) 15
ENTIER (269) 25
REEL (270) 26
BOOLEEN (271) 27
CARACTERE (272) 28
CHAINE (273) 29 90
CSTE_ENTIERE (274) 29 88
CSTE_REELE (275) 89
RETOURNE (276) 32 43
PO (277) 34 47 70 87
PF (278) 34 47 70 87
VIDE (279) 42
SI (280) 52
ALORS (281) 52
SINON (282) 52
TANT_QUE (283) 53
FAIRE (284) 53
OPAFF (285) 54
CO (286) 16 29 56
CF (287) 16 29 56
P (288) 58
V (289) 18 50 61
OU (290) 64
ET (291) 66
NON (292) 68
VRAI (293) 71
FAUX (294) 72
OPEG (295) 74
OPDIF (296) 75
OPINF (297) 76
OPSUP (298) 77
OPINFEG (299) 78
OPSUPEG (300) 79
PLUS (301) 80
MOINS (302) 81
MULT (303) 83
DIV (304) 84
MOD (305) 85
NEG (306)
VARIABLE (307) 30
PROCEDURE (308) 31
FONCTION (309) 32
UN_CARACTERE (310) 91
P_P (311) 19


Non-terminaux, suivis des règles où ils apparaissent

$accept (57)
    à gauche: 0
programme (58)
    à gauche: 1, à droite: 0
corps (59)
    à gauche: 2 3, à droite: 1 31 32
liste_declarations (60)
    à gauche: 4 5, à droite: 2 5
liste_instructions (61)
    à gauche: 6, à droite: 2 3 52 53
suite_liste_inst (62)
    à gauche: 7 8, à droite: 6 8
declaration (63)
    à gauche: 9 10 11 12, à droite: 4 5
declaration_type (64)
    à gauche: 13, à droite: 9
suite_declaration_type (65)
    à gauche: 14 15, à droite: 13
dimension (66)
    à gauche: 16, à droite: 15
liste_dimensions (67)
    à gauche: 17 18, à droite: 16 18
une_dimension (68)
    à gauche: 19, à droite: 17 18
liste_champs (69)
    à gauche: 20 21, à droite: 14 21
un_champ (70)
    à gauche: 22, à droite: 20 21
nom_type (71)
    à gauche: 23 24, à droite: 15 22 30
type_simple (72)
    à gauche: 25 26 27 28 29, à droite: 23 32 37
declaration_variable (73)
    à gauche: 30, à droite: 10
declaration_procedure (74)
    à gauche: 31, à droite: 11
declaration_fonction (75)
    à gauche: 32, à droite: 12
liste_parametres (76)
    à gauche: 33 34, à droite: 31 32
liste_param (77)
    à gauche: 35 36, à droite: 34 36
un_param (78)
    à gauche: 37, à droite: 35 36
instruction (79)
    à gauche: 38 39 40 41 42 43, à droite: 7 8
resultat_retourne (80)
    à gauche: 44 45, à droite: 43
appel (81)
    à gauche: 46, à droite: 41 93
liste_arguments (82)
    à gauche: 47, à droite: 46
liste_args (83)
    à gauche: 48 49 50, à droite: 47 50
un_arg (84)
    à gauche: 51, à droite: 49 50
condition (85)
    à gauche: 52, à droite: 39
tant_que (86)
    à gauche: 53, à droite: 40
affectation (87)
    à gauche: 54, à droite: 38
variable (88)
    à gauche: 55, à droite: 54 58 92
suite_variable (89)
    à gauche: 56 57, à droite: 55
var_struct (90)
    à gauche: 58 59, à droite: 56 57
liste_indices (91)
    à gauche: 60 61, à droite: 56 61
expression (92)
    à gauche: 62 63, à droite: 19 45 51 54
eb (93)
    à gauche: 64 65, à droite: 52 53 63 64 70
eb1 (94)
    à gauche: 66 67, à droite: 64 65 66
eb2 (95)
    à gauche: 68 69, à droite: 66 67
eb3 (96)
    à gauche: 70 71 72 73, à droite: 68 69
comparaison (97)
    à gauche: 74 75 76 77 78 79, à droite: 73
ea (98)
    à gauche: 80 81 82, à droite: 60 61 62 74 75 76 77 78 79 80 81
    87
ea1 (99)
    à gauche: 83 84 85 86, à droite: 80 81 82 83 84 85
ea2 (100)
    à gauche: 87 88 89 90 91 92 93, à droite: 83 84 85 86


État 0

    0 $accept: . programme $end

    PROG  décalage et aller à l'état 1

    programme  aller à l'état 2


État 1

    1 programme: PROG . corps

    DEBUT      décalage et aller à l'état 3
    TYPE       décalage et aller à l'état 4
    VARIABLE   décalage et aller à l'état 5
    PROCEDURE  décalage et aller à l'état 6
    FONCTION   décalage et aller à l'état 7

    corps                  aller à l'état 8
    liste_declarations     aller à l'état 9
    liste_instructions     aller à l'état 10
    declaration            aller à l'état 11
    declaration_type       aller à l'état 12
    declaration_variable   aller à l'état 13
    declaration_procedure  aller à l'état 14
    declaration_fonction   aller à l'état 15


État 2

    0 $accept: programme . $end

    $end  décalage et aller à l'état 16


État 3

    6 liste_instructions: DEBUT . suite_liste_inst FIN

    IDF       décalage et aller à l'état 17
    RETOURNE  décalage et aller à l'état 18
    VIDE      décalage et aller à l'état 19
    SI        décalage et aller à l'état 20
    TANT_QUE  décalage et aller à l'état 21

    suite_liste_inst  aller à l'état 22
    instruction       aller à l'état 23
    appel             aller à l'état 24
    condition         aller à l'état 25
    tant_que          aller à l'état 26
    affectation       aller à l'état 27
    variable          aller à l'état 28


État 4

   13 declaration_type: TYPE . IDF DP suite_declaration_type

    IDF  décalage et aller à l'état 29


État 5

   30 declaration_variable: VARIABLE . IDF DP nom_type

    IDF  décalage et aller à l'état 30


État 6

   31 declaration_procedure: PROCEDURE . IDF liste_parametres corps

    IDF  décalage et aller à l'état 31


État 7

   32 declaration_fonction: FONCTION . IDF liste_parametres RETOURNE type_simple corps

    IDF  décalage et aller à l'état 32


État 8

    1 programme: PROG corps .

    $défaut  réduction par utilisation de la règle 1 (programme)


État 9

    2 corps: liste_declarations . liste_instructions
    5 liste_declarations: liste_declarations . declaration PV

    DEBUT      décalage et aller à l'état 3
    TYPE       décalage et aller à l'état 4
    VARIABLE   décalage et aller à l'état 5
    PROCEDURE  décalage et aller à l'état 6
    FONCTION   décalage et aller à l'état 7

    liste_instructions     aller à l'état 33
    declaration            aller à l'état 34
    declaration_type       aller à l'état 12
    declaration_variable   aller à l'état 13
    declaration_procedure  aller à l'état 14
    declaration_fonction   aller à l'état 15


État 10

    3 corps: liste_instructions .

    $défaut  réduction par utilisation de la règle 3 (corps)


État 11

    4 liste_declarations: declaration . PV

    PV  décalage et aller à l'état 35


État 12

    9 declaration: declaration_type .

    $défaut  réduction par utilisation de la règle 9 (declaration)


État 13

   10 declaration: declaration_variable .

    $défaut  réduction par utilisation de la règle 10 (declaration)


État 14

   11 declaration: declaration_procedure .

    $défaut  réduction par utilisation de la règle 11 (declaration)


État 15

   12 declaration: declaration_fonction .

    $défaut  réduction par utilisation de la règle 12 (declaration)


État 16

    0 $accept: programme $end .

    $défaut  accepter


État 17

   46 appel: IDF . liste_arguments
   55 variable: IDF . suite_variable

    PO  décalage et aller à l'état 36
    CO  décalage et aller à l'état 37
    P   décalage et aller à l'état 38

    $défaut  réduction par utilisation de la règle 59 (var_struct)

    liste_arguments  aller à l'état 39
    suite_variable   aller à l'état 40
    var_struct       aller à l'état 41


État 18

   43 instruction: RETOURNE . resultat_retourne

    IDF           décalage et aller à l'état 17
    CHAINE        décalage et aller à l'état 42
    CSTE_ENTIERE  décalage et aller à l'état 43
    CSTE_REELE    décalage et aller à l'état 44
    PO            décalage et aller à l'état 45
    NON           décalage et aller à l'état 46
    VRAI          décalage et aller à l'état 47
    FAUX          décalage et aller à l'état 48
    UN_CARACTERE  décalage et aller à l'état 49

    $défaut  réduction par utilisation de la règle 44 (resultat_retourne)

    resultat_retourne  aller à l'état 50
    appel              aller à l'état 51
    variable           aller à l'état 52
    expression         aller à l'état 53
    eb                 aller à l'état 54
    eb1                aller à l'état 55
    eb2                aller à l'état 56
    eb3                aller à l'état 57
    comparaison        aller à l'état 58
    ea                 aller à l'état 59
    ea1                aller à l'état 60
    ea2                aller à l'état 61


État 19

   42 instruction: VIDE .

    $défaut  réduction par utilisation de la règle 42 (instruction)


État 20

   52 condition: SI . eb ALORS liste_instructions SINON liste_instructions

    IDF           décalage et aller à l'état 17
    CHAINE        décalage et aller à l'état 42
    CSTE_ENTIERE  décalage et aller à l'état 43
    CSTE_REELE    décalage et aller à l'état 44
    PO            décalage et aller à l'état 45
    NON           décalage et aller à l'état 46
    VRAI          décalage et aller à l'état 47
    FAUX          décalage et aller à l'état 48
    UN_CARACTERE  décalage et aller à l'état 49

    appel        aller à l'état 51
    variable     aller à l'état 52
    eb           aller à l'état 62
    eb1          aller à l'état 55
    eb2          aller à l'état 56
    eb3          aller à l'état 57
    comparaison  aller à l'état 58
    ea           aller à l'état 63
    ea1          aller à l'état 60
    ea2          aller à l'état 61


État 21

   53 tant_que: TANT_QUE . eb FAIRE liste_instructions

    IDF           décalage et aller à l'état 17
    CHAINE        décalage et aller à l'état 42
    CSTE_ENTIERE  décalage et aller à l'état 43
    CSTE_REELE    décalage et aller à l'état 44
    PO            décalage et aller à l'état 45
    NON           décalage et aller à l'état 46
    VRAI          décalage et aller à l'état 47
    FAUX          décalage et aller à l'état 48
    UN_CARACTERE  décalage et aller à l'état 49

    appel        aller à l'état 51
    variable     aller à l'état 52
    eb           aller à l'état 64
    eb1          aller à l'état 55
    eb2          aller à l'état 56
    eb3          aller à l'état 57
    comparaison  aller à l'état 58
    ea           aller à l'état 63
    ea1          aller à l'état 60
    ea2          aller à l'état 61


État 22

    6 liste_instructions: DEBUT suite_liste_inst . FIN
    8 suite_liste_inst: suite_liste_inst . instruction PV

    FIN       décalage et aller à l'état 65
    IDF       décalage et aller à l'état 17
    RETOURNE  décalage et aller à l'état 18
    VIDE      décalage et aller à l'état 19
    SI        décalage et aller à l'état 20
    TANT_QUE  décalage et aller à l'état 21

    instruction  aller à l'état 66
    appel        aller à l'état 24
    condition    aller à l'état 25
    tant_que     aller à l'état 26
    affectation  aller à l'état 27
    variable     aller à l'état 28


État 23

    7 suite_liste_inst: instruction . PV

    PV  décalage et aller à l'état 67


État 24

   41 instruction: appel .

    $défaut  réduction par utilisation de la règle 41 (instruction)


État 25

   39 instruction: condition .

    $défaut  réduction par utilisation de la règle 39 (instruction)


État 26

   40 instruction: tant_que .

    $défaut  réduction par utilisation de la règle 40 (instruction)


État 27

   38 instruction: affectation .

    $défaut  réduction par utilisation de la règle 38 (instruction)


État 28

   54 affectation: variable . OPAFF expression

    OPAFF  décalage et aller à l'état 68


État 29

   13 declaration_type: TYPE IDF . DP suite_declaration_type

    DP  décalage et aller à l'état 69


État 30

   30 declaration_variable: VARIABLE IDF . DP nom_type

    DP  décalage et aller à l'état 70


État 31

   31 declaration_procedure: PROCEDURE IDF . liste_parametres corps

    PO  décalage et aller à l'état 71

    $défaut  réduction par utilisation de la règle 33 (liste_parametres)

    liste_parametres  aller à l'état 72


État 32

   32 declaration_fonction: FONCTION IDF . liste_parametres RETOURNE type_simple corps

    PO  décalage et aller à l'état 71

    $défaut  réduction par utilisation de la règle 33 (liste_parametres)

    liste_parametres  aller à l'état 73


État 33

    2 corps: liste_declarations liste_instructions .

    $défaut  réduction par utilisation de la règle 2 (corps)


État 34

    5 liste_declarations: liste_declarations declaration . PV

    PV  décalage et aller à l'état 74


État 35

    4 liste_declarations: declaration PV .

    $défaut  réduction par utilisation de la règle 4 (liste_declarations)


État 36

   47 liste_arguments: PO . liste_args PF

    IDF           décalage et aller à l'état 17
    CHAINE        décalage et aller à l'état 42
    CSTE_ENTIERE  décalage et aller à l'état 43
    CSTE_REELE    décalage et aller à l'état 44
    PO            décalage et aller à l'état 45
    NON           décalage et aller à l'état 46
    VRAI          décalage et aller à l'état 47
    FAUX          décalage et aller à l'état 48
    UN_CARACTERE  décalage et aller à l'état 49

    $défaut  réduction par utilisation de la règle 48 (liste_args)

    appel        aller à l'état 51
    liste_args   aller à l'état 75
    un_arg       aller à l'état 76
    variable     aller à l'état 52
    expression   aller à l'état 77
    eb           aller à l'état 54
    eb1          aller à l'état 55
    eb2          aller à l'état 56
    eb3          aller à l'état 57
    comparaison  aller à l'état 58
    ea           aller à l'état 59
    ea1          aller à l'état 60
    ea2          aller à l'état 61


État 37

   56 suite_variable: CO . liste_indices CF var_struct

    IDF           décalage et aller à l'état 17
    CHAINE        décalage et aller à l'état 42
    CSTE_ENTIERE  décalage et aller à l'état 43
    CSTE_REELE    décalage et aller à l'état 44
    PO            décalage et aller à l'état 78
    UN_CARACTERE  décalage et aller à l'état 49

    appel          aller à l'état 51
    variable       aller à l'état 52
    liste_indices  aller à l'état 79
    ea             aller à l'état 80
    ea1            aller à l'état 60
    ea2            aller à l'état 61


État 38

   58 var_struct: P . variable

    IDF  décalage et aller à l'état 81

    variable  aller à l'état 82


État 39

   46 appel: IDF liste_arguments .

    $défaut  réduction par utilisation de la règle 46 (appel)


État 40

   55 variable: IDF suite_variable .

    $défaut  réduction par utilisation de la règle 55 (variable)


État 41

   57 suite_variable: var_struct .

    $défaut  réduction par utilisation de la règle 57 (suite_variable)


État 42

   90 ea2: CHAINE .

    $défaut  réduction par utilisation de la règle 90 (ea2)


État 43

   88 ea2: CSTE_ENTIERE .

    $défaut  réduction par utilisation de la règle 88 (ea2)


État 44

   89 ea2: CSTE_REELE .

    $défaut  réduction par utilisation de la règle 89 (ea2)


État 45

   70 eb3: PO . eb PF
   87 ea2: PO . ea PF

    IDF           décalage et aller à l'état 17
    CHAINE        décalage et aller à l'état 42
    CSTE_ENTIERE  décalage et aller à l'état 43
    CSTE_REELE    décalage et aller à l'état 44
    PO            décalage et aller à l'état 45
    NON           décalage et aller à l'état 46
    VRAI          décalage et aller à l'état 47
    FAUX          décalage et aller à l'état 48
    UN_CARACTERE  décalage et aller à l'état 49

    appel        aller à l'état 51
    variable     aller à l'état 52
    eb           aller à l'état 83
    eb1          aller à l'état 55
    eb2          aller à l'état 56
    eb3          aller à l'état 57
    comparaison  aller à l'état 58
    ea           aller à l'état 84
    ea1          aller à l'état 60
    ea2          aller à l'état 61


État 46

   68 eb2: NON . eb3

    IDF           décalage et aller à l'état 17
    CHAINE        décalage et aller à l'état 42
    CSTE_ENTIERE  décalage et aller à l'état 43
    CSTE_REELE    décalage et aller à l'état 44
    PO            décalage et aller à l'état 45
    VRAI          décalage et aller à l'état 47
    FAUX          décalage et aller à l'état 48
    UN_CARACTERE  décalage et aller à l'état 49

    appel        aller à l'état 51
    variable     aller à l'état 52
    eb3          aller à l'état 85
    comparaison  aller à l'état 58
    ea           aller à l'état 63
    ea1          aller à l'état 60
    ea2          aller à l'état 61


État 47

   71 eb3: VRAI .

    $défaut  réduction par utilisation de la règle 71 (eb3)


État 48

   72 eb3: FAUX .

    $défaut  réduction par utilisation de la règle 72 (eb3)


État 49

   91 ea2: UN_CARACTERE .

    $défaut  réduction par utilisation de la règle 91 (ea2)


État 50

   43 instruction: RETOURNE resultat_retourne .

    $défaut  réduction par utilisation de la règle 43 (instruction)


État 51

   93 ea2: appel .

    $défaut  réduction par utilisation de la règle 93 (ea2)


État 52

   92 ea2: variable .

    $défaut  réduction par utilisation de la règle 92 (ea2)


État 53

   45 resultat_retourne: expression .

    $défaut  réduction par utilisation de la règle 45 (resultat_retourne)


État 54

   63 expression: eb .
   64 eb: eb . OU eb1

    OU  décalage et aller à l'état 86

    $défaut  réduction par utilisation de la règle 63 (expression)


État 55

   65 eb: eb1 .
   66 eb1: eb1 . ET eb2

    ET  décalage et aller à l'état 87

    $défaut  réduction par utilisation de la règle 65 (eb)


État 56

   67 eb1: eb2 .

    $défaut  réduction par utilisation de la règle 67 (eb1)


État 57

   69 eb2: eb3 .

    $défaut  réduction par utilisation de la règle 69 (eb2)


État 58

   73 eb3: comparaison .

    $défaut  réduction par utilisation de la règle 73 (eb3)


État 59

   62 expression: ea .
   74 comparaison: ea . OPEG ea
   75            | ea . OPDIF ea
   76            | ea . OPINF ea
   77            | ea . OPSUP ea
   78            | ea . OPINFEG ea
   79            | ea . OPSUPEG ea
   80 ea: ea . PLUS ea1
   81   | ea . MOINS ea1

    OPEG     décalage et aller à l'état 88
    OPDIF    décalage et aller à l'état 89
    OPINF    décalage et aller à l'état 90
    OPSUP    décalage et aller à l'état 91
    OPINFEG  décalage et aller à l'état 92
    OPSUPEG  décalage et aller à l'état 93
    PLUS     décalage et aller à l'état 94
    MOINS    décalage et aller à l'état 95

    $défaut  réduction par utilisation de la règle 62 (expression)


État 60

   82 ea: ea1 .
   83 ea1: ea1 . MULT ea2
   84    | ea1 . DIV ea2
   85    | ea1 . MOD ea2

    MULT  décalage et aller à l'état 96
    DIV   décalage et aller à l'état 97
    MOD   décalage et aller à l'état 98

    $défaut  réduction par utilisation de la règle 82 (ea)


État 61

   86 ea1: ea2 .

    $défaut  réduction par utilisation de la règle 86 (ea1)


État 62

   52 condition: SI eb . ALORS liste_instructions SINON liste_instructions
   64 eb: eb . OU eb1

    ALORS  décalage et aller à l'état 99
    OU     décalage et aller à l'état 86


État 63

   74 comparaison: ea . OPEG ea
   75            | ea . OPDIF ea
   76            | ea . OPINF ea
   77            | ea . OPSUP ea
   78            | ea . OPINFEG ea
   79            | ea . OPSUPEG ea
   80 ea: ea . PLUS ea1
   81   | ea . MOINS ea1

    OPEG     décalage et aller à l'état 88
    OPDIF    décalage et aller à l'état 89
    OPINF    décalage et aller à l'état 90
    OPSUP    décalage et aller à l'état 91
    OPINFEG  décalage et aller à l'état 92
    OPSUPEG  décalage et aller à l'état 93
    PLUS     décalage et aller à l'état 94
    MOINS    décalage et aller à l'état 95


État 64

   53 tant_que: TANT_QUE eb . FAIRE liste_instructions
   64 eb: eb . OU eb1

    FAIRE  décalage et aller à l'état 100
    OU     décalage et aller à l'état 86


État 65

    6 liste_instructions: DEBUT suite_liste_inst FIN .

    $défaut  réduction par utilisation de la règle 6 (liste_instructions)


État 66

    8 suite_liste_inst: suite_liste_inst instruction . PV

    PV  décalage et aller à l'état 101


État 67

    7 suite_liste_inst: instruction PV .

    $défaut  réduction par utilisation de la règle 7 (suite_liste_inst)


État 68

   54 affectation: variable OPAFF . expression

    IDF           décalage et aller à l'état 17
    CHAINE        décalage et aller à l'état 42
    CSTE_ENTIERE  décalage et aller à l'état 43
    CSTE_REELE    décalage et aller à l'état 44
    PO            décalage et aller à l'état 45
    NON           décalage et aller à l'état 46
    VRAI          décalage et aller à l'état 47
    FAUX          décalage et aller à l'état 48
    UN_CARACTERE  décalage et aller à l'état 49

    appel        aller à l'état 51
    variable     aller à l'état 52
    expression   aller à l'état 102
    eb           aller à l'état 54
    eb1          aller à l'état 55
    eb2          aller à l'état 56
    eb3          aller à l'état 57
    comparaison  aller à l'état 58
    ea           aller à l'état 59
    ea1          aller à l'état 60
    ea2          aller à l'état 61


État 69

   13 declaration_type: TYPE IDF DP . suite_declaration_type

    STRUCT   décalage et aller à l'état 103
    TABLEAU  décalage et aller à l'état 104

    suite_declaration_type  aller à l'état 105


État 70

   30 declaration_variable: VARIABLE IDF DP . nom_type

    IDF        décalage et aller à l'état 106
    ENTIER     décalage et aller à l'état 107
    REEL       décalage et aller à l'état 108
    BOOLEEN    décalage et aller à l'état 109
    CARACTERE  décalage et aller à l'état 110
    CHAINE     décalage et aller à l'état 111

    nom_type     aller à l'état 112
    type_simple  aller à l'état 113


État 71

   34 liste_parametres: PO . liste_param PF

    IDF  décalage et aller à l'état 114

    liste_param  aller à l'état 115
    un_param     aller à l'état 116


État 72

   31 declaration_procedure: PROCEDURE IDF liste_parametres . corps

    DEBUT      décalage et aller à l'état 3
    TYPE       décalage et aller à l'état 4
    VARIABLE   décalage et aller à l'état 5
    PROCEDURE  décalage et aller à l'état 6
    FONCTION   décalage et aller à l'état 7

    corps                  aller à l'état 117
    liste_declarations     aller à l'état 9
    liste_instructions     aller à l'état 10
    declaration            aller à l'état 11
    declaration_type       aller à l'état 12
    declaration_variable   aller à l'état 13
    declaration_procedure  aller à l'état 14
    declaration_fonction   aller à l'état 15


État 73

   32 declaration_fonction: FONCTION IDF liste_parametres . RETOURNE type_simple corps

    RETOURNE  décalage et aller à l'état 118


État 74

    5 liste_declarations: liste_declarations declaration PV .

    $défaut  réduction par utilisation de la règle 5 (liste_declarations)


État 75

   47 liste_arguments: PO liste_args . PF
   50 liste_args: liste_args . V un_arg

    PF  décalage et aller à l'état 119
    V   décalage et aller à l'état 120


État 76

   49 liste_args: un_arg .

    $défaut  réduction par utilisation de la règle 49 (liste_args)


État 77

   51 un_arg: expression .

    $défaut  réduction par utilisation de la règle 51 (un_arg)


État 78

   87 ea2: PO . ea PF

    IDF           décalage et aller à l'état 17
    CHAINE        décalage et aller à l'état 42
    CSTE_ENTIERE  décalage et aller à l'état 43
    CSTE_REELE    décalage et aller à l'état 44
    PO            décalage et aller à l'état 78
    UN_CARACTERE  décalage et aller à l'état 49

    appel     aller à l'état 51
    variable  aller à l'état 52
    ea        aller à l'état 121
    ea1       aller à l'état 60
    ea2       aller à l'état 61


État 79

   56 suite_variable: CO liste_indices . CF var_struct
   61 liste_indices: liste_indices . V ea

    CF  décalage et aller à l'état 122
    V   décalage et aller à l'état 123


État 80

   60 liste_indices: ea .
   80 ea: ea . PLUS ea1
   81   | ea . MOINS ea1

    PLUS   décalage et aller à l'état 94
    MOINS  décalage et aller à l'état 95

    $défaut  réduction par utilisation de la règle 60 (liste_indices)


État 81

   55 variable: IDF . suite_variable

    CO  décalage et aller à l'état 37
    P   décalage et aller à l'état 38

    $défaut  réduction par utilisation de la règle 59 (var_struct)

    suite_variable  aller à l'état 40
    var_struct      aller à l'état 41


État 82

   58 var_struct: P variable .

    $défaut  réduction par utilisation de la règle 58 (var_struct)


État 83

   64 eb: eb . OU eb1
   70 eb3: PO eb . PF

    PF  décalage et aller à l'état 124
    OU  décalage et aller à l'état 86


État 84

   74 comparaison: ea . OPEG ea
   75            | ea . OPDIF ea
   76            | ea . OPINF ea
   77            | ea . OPSUP ea
   78            | ea . OPINFEG ea
   79            | ea . OPSUPEG ea
   80 ea: ea . PLUS ea1
   81   | ea . MOINS ea1
   87 ea2: PO ea . PF

    PF       décalage et aller à l'état 125
    OPEG     décalage et aller à l'état 88
    OPDIF    décalage et aller à l'état 89
    OPINF    décalage et aller à l'état 90
    OPSUP    décalage et aller à l'état 91
    OPINFEG  décalage et aller à l'état 92
    OPSUPEG  décalage et aller à l'état 93
    PLUS     décalage et aller à l'état 94
    MOINS    décalage et aller à l'état 95


État 85

   68 eb2: NON eb3 .

    $défaut  réduction par utilisation de la règle 68 (eb2)


État 86

   64 eb: eb OU . eb1

    IDF           décalage et aller à l'état 17
    CHAINE        décalage et aller à l'état 42
    CSTE_ENTIERE  décalage et aller à l'état 43
    CSTE_REELE    décalage et aller à l'état 44
    PO            décalage et aller à l'état 45
    NON           décalage et aller à l'état 46
    VRAI          décalage et aller à l'état 47
    FAUX          décalage et aller à l'état 48
    UN_CARACTERE  décalage et aller à l'état 49

    appel        aller à l'état 51
    variable     aller à l'état 52
    eb1          aller à l'état 126
    eb2          aller à l'état 56
    eb3          aller à l'état 57
    comparaison  aller à l'état 58
    ea           aller à l'état 63
    ea1          aller à l'état 60
    ea2          aller à l'état 61


État 87

   66 eb1: eb1 ET . eb2

    IDF           décalage et aller à l'état 17
    CHAINE        décalage et aller à l'état 42
    CSTE_ENTIERE  décalage et aller à l'état 43
    CSTE_REELE    décalage et aller à l'état 44
    PO            décalage et aller à l'état 45
    NON           décalage et aller à l'état 46
    VRAI          décalage et aller à l'état 47
    FAUX          décalage et aller à l'état 48
    UN_CARACTERE  décalage et aller à l'état 49

    appel        aller à l'état 51
    variable     aller à l'état 52
    eb2          aller à l'état 127
    eb3          aller à l'état 57
    comparaison  aller à l'état 58
    ea           aller à l'état 63
    ea1          aller à l'état 60
    ea2          aller à l'état 61


État 88

   74 comparaison: ea OPEG . ea

    IDF           décalage et aller à l'état 17
    CHAINE        décalage et aller à l'état 42
    CSTE_ENTIERE  décalage et aller à l'état 43
    CSTE_REELE    décalage et aller à l'état 44
    PO            décalage et aller à l'état 78
    UN_CARACTERE  décalage et aller à l'état 49

    appel     aller à l'état 51
    variable  aller à l'état 52
    ea        aller à l'état 128
    ea1       aller à l'état 60
    ea2       aller à l'état 61


État 89

   75 comparaison: ea OPDIF . ea

    IDF           décalage et aller à l'état 17
    CHAINE        décalage et aller à l'état 42
    CSTE_ENTIERE  décalage et aller à l'état 43
    CSTE_REELE    décalage et aller à l'état 44
    PO            décalage et aller à l'état 78
    UN_CARACTERE  décalage et aller à l'état 49

    appel     aller à l'état 51
    variable  aller à l'état 52
    ea        aller à l'état 129
    ea1       aller à l'état 60
    ea2       aller à l'état 61


État 90

   76 comparaison: ea OPINF . ea

    IDF           décalage et aller à l'état 17
    CHAINE        décalage et aller à l'état 42
    CSTE_ENTIERE  décalage et aller à l'état 43
    CSTE_REELE    décalage et aller à l'état 44
    PO            décalage et aller à l'état 78
    UN_CARACTERE  décalage et aller à l'état 49

    appel     aller à l'état 51
    variable  aller à l'état 52
    ea        aller à l'état 130
    ea1       aller à l'état 60
    ea2       aller à l'état 61


État 91

   77 comparaison: ea OPSUP . ea

    IDF           décalage et aller à l'état 17
    CHAINE        décalage et aller à l'état 42
    CSTE_ENTIERE  décalage et aller à l'état 43
    CSTE_REELE    décalage et aller à l'état 44
    PO            décalage et aller à l'état 78
    UN_CARACTERE  décalage et aller à l'état 49

    appel     aller à l'état 51
    variable  aller à l'état 52
    ea        aller à l'état 131
    ea1       aller à l'état 60
    ea2       aller à l'état 61


État 92

   78 comparaison: ea OPINFEG . ea

    IDF           décalage et aller à l'état 17
    CHAINE        décalage et aller à l'état 42
    CSTE_ENTIERE  décalage et aller à l'état 43
    CSTE_REELE    décalage et aller à l'état 44
    PO            décalage et aller à l'état 78
    UN_CARACTERE  décalage et aller à l'état 49

    appel     aller à l'état 51
    variable  aller à l'état 52
    ea        aller à l'état 132
    ea1       aller à l'état 60
    ea2       aller à l'état 61


État 93

   79 comparaison: ea OPSUPEG . ea

    IDF           décalage et aller à l'état 17
    CHAINE        décalage et aller à l'état 42
    CSTE_ENTIERE  décalage et aller à l'état 43
    CSTE_REELE    décalage et aller à l'état 44
    PO            décalage et aller à l'état 78
    UN_CARACTERE  décalage et aller à l'état 49

    appel     aller à l'état 51
    variable  aller à l'état 52
    ea        aller à l'état 133
    ea1       aller à l'état 60
    ea2       aller à l'état 61


État 94

   80 ea: ea PLUS . ea1

    IDF           décalage et aller à l'état 17
    CHAINE        décalage et aller à l'état 42
    CSTE_ENTIERE  décalage et aller à l'état 43
    CSTE_REELE    décalage et aller à l'état 44
    PO            décalage et aller à l'état 78
    UN_CARACTERE  décalage et aller à l'état 49

    appel     aller à l'état 51
    variable  aller à l'état 52
    ea1       aller à l'état 134
    ea2       aller à l'état 61


État 95

   81 ea: ea MOINS . ea1

    IDF           décalage et aller à l'état 17
    CHAINE        décalage et aller à l'état 42
    CSTE_ENTIERE  décalage et aller à l'état 43
    CSTE_REELE    décalage et aller à l'état 44
    PO            décalage et aller à l'état 78
    UN_CARACTERE  décalage et aller à l'état 49

    appel     aller à l'état 51
    variable  aller à l'état 52
    ea1       aller à l'état 135
    ea2       aller à l'état 61


État 96

   83 ea1: ea1 MULT . ea2

    IDF           décalage et aller à l'état 17
    CHAINE        décalage et aller à l'état 42
    CSTE_ENTIERE  décalage et aller à l'état 43
    CSTE_REELE    décalage et aller à l'état 44
    PO            décalage et aller à l'état 78
    UN_CARACTERE  décalage et aller à l'état 49

    appel     aller à l'état 51
    variable  aller à l'état 52
    ea2       aller à l'état 136


État 97

   84 ea1: ea1 DIV . ea2

    IDF           décalage et aller à l'état 17
    CHAINE        décalage et aller à l'état 42
    CSTE_ENTIERE  décalage et aller à l'état 43
    CSTE_REELE    décalage et aller à l'état 44
    PO            décalage et aller à l'état 78
    UN_CARACTERE  décalage et aller à l'état 49

    appel     aller à l'état 51
    variable  aller à l'état 52
    ea2       aller à l'état 137


État 98

   85 ea1: ea1 MOD . ea2

    IDF           décalage et aller à l'état 17
    CHAINE        décalage et aller à l'état 42
    CSTE_ENTIERE  décalage et aller à l'état 43
    CSTE_REELE    décalage et aller à l'état 44
    PO            décalage et aller à l'état 78
    UN_CARACTERE  décalage et aller à l'état 49

    appel     aller à l'état 51
    variable  aller à l'état 52
    ea2       aller à l'état 138


État 99

   52 condition: SI eb ALORS . liste_instructions SINON liste_instructions

    DEBUT  décalage et aller à l'état 3

    liste_instructions  aller à l'état 139


État 100

   53 tant_que: TANT_QUE eb FAIRE . liste_instructions

    DEBUT  décalage et aller à l'état 3

    liste_instructions  aller à l'état 140


État 101

    8 suite_liste_inst: suite_liste_inst instruction PV .

    $défaut  réduction par utilisation de la règle 8 (suite_liste_inst)


État 102

   54 affectation: variable OPAFF expression .

    $défaut  réduction par utilisation de la règle 54 (affectation)


État 103

   14 suite_declaration_type: STRUCT . liste_champs FSTRUCT

    IDF  décalage et aller à l'état 141

    liste_champs  aller à l'état 142
    un_champ      aller à l'état 143


État 104

   15 suite_declaration_type: TABLEAU . dimension FLECHE nom_type

    CO  décalage et aller à l'état 144

    dimension  aller à l'état 145


État 105

   13 declaration_type: TYPE IDF DP suite_declaration_type .

    $défaut  réduction par utilisation de la règle 13 (declaration_type)


État 106

   24 nom_type: IDF .

    $défaut  réduction par utilisation de la règle 24 (nom_type)


État 107

   25 type_simple: ENTIER .

    $défaut  réduction par utilisation de la règle 25 (type_simple)


État 108

   26 type_simple: REEL .

    $défaut  réduction par utilisation de la règle 26 (type_simple)


État 109

   27 type_simple: BOOLEEN .

    $défaut  réduction par utilisation de la règle 27 (type_simple)


État 110

   28 type_simple: CARACTERE .

    $défaut  réduction par utilisation de la règle 28 (type_simple)


État 111

   29 type_simple: CHAINE . CO CSTE_ENTIERE CF

    CO  décalage et aller à l'état 146


État 112

   30 declaration_variable: VARIABLE IDF DP nom_type .

    $défaut  réduction par utilisation de la règle 30 (declaration_variable)


État 113

   23 nom_type: type_simple .

    $défaut  réduction par utilisation de la règle 23 (nom_type)


État 114

   37 un_param: IDF . DP type_simple

    DP  décalage et aller à l'état 147


État 115

   34 liste_parametres: PO liste_param . PF
   36 liste_param: liste_param . PV un_param

    PV  décalage et aller à l'état 148
    PF  décalage et aller à l'état 149


État 116

   35 liste_param: un_param .

    $défaut  réduction par utilisation de la règle 35 (liste_param)


État 117

   31 declaration_procedure: PROCEDURE IDF liste_parametres corps .

    $défaut  réduction par utilisation de la règle 31 (declaration_procedure)


État 118

   32 declaration_fonction: FONCTION IDF liste_parametres RETOURNE . type_simple corps

    ENTIER     décalage et aller à l'état 107
    REEL       décalage et aller à l'état 108
    BOOLEEN    décalage et aller à l'état 109
    CARACTERE  décalage et aller à l'état 110
    CHAINE     décalage et aller à l'état 111

    type_simple  aller à l'état 150


État 119

   47 liste_arguments: PO liste_args PF .

    $défaut  réduction par utilisation de la règle 47 (liste_arguments)


État 120

   50 liste_args: liste_args V . un_arg

    IDF           décalage et aller à l'état 17
    CHAINE        décalage et aller à l'état 42
    CSTE_ENTIERE  décalage et aller à l'état 43
    CSTE_REELE    décalage et aller à l'état 44
    PO            décalage et aller à l'état 45
    NON           décalage et aller à l'état 46
    VRAI          décalage et aller à l'état 47
    FAUX          décalage et aller à l'état 48
    UN_CARACTERE  décalage et aller à l'état 49

    appel        aller à l'état 51
    un_arg       aller à l'état 151
    variable     aller à l'état 52
    expression   aller à l'état 77
    eb           aller à l'état 54
    eb1          aller à l'état 55
    eb2          aller à l'état 56
    eb3          aller à l'état 57
    comparaison  aller à l'état 58
    ea           aller à l'état 59
    ea1          aller à l'état 60
    ea2          aller à l'état 61


État 121

   80 ea: ea . PLUS ea1
   81   | ea . MOINS ea1
   87 ea2: PO ea . PF

    PF     décalage et aller à l'état 125
    PLUS   décalage et aller à l'état 94
    MOINS  décalage et aller à l'état 95


État 122

   56 suite_variable: CO liste_indices CF . var_struct

    P  décalage et aller à l'état 38

    $défaut  réduction par utilisation de la règle 59 (var_struct)

    var_struct  aller à l'état 152


État 123

   61 liste_indices: liste_indices V . ea

    IDF           décalage et aller à l'état 17
    CHAINE        décalage et aller à l'état 42
    CSTE_ENTIERE  décalage et aller à l'état 43
    CSTE_REELE    décalage et aller à l'état 44
    PO            décalage et aller à l'état 78
    UN_CARACTERE  décalage et aller à l'état 49

    appel     aller à l'état 51
    variable  aller à l'état 52
    ea        aller à l'état 153
    ea1       aller à l'état 60
    ea2       aller à l'état 61


État 124

   70 eb3: PO eb PF .

    $défaut  réduction par utilisation de la règle 70 (eb3)


État 125

   87 ea2: PO ea PF .

    $défaut  réduction par utilisation de la règle 87 (ea2)


État 126

   64 eb: eb OU eb1 .
   66 eb1: eb1 . ET eb2

    ET  décalage et aller à l'état 87

    $défaut  réduction par utilisation de la règle 64 (eb)


État 127

   66 eb1: eb1 ET eb2 .

    $défaut  réduction par utilisation de la règle 66 (eb1)


État 128

   74 comparaison: ea OPEG ea .
   80 ea: ea . PLUS ea1
   81   | ea . MOINS ea1

    PLUS   décalage et aller à l'état 94
    MOINS  décalage et aller à l'état 95

    $défaut  réduction par utilisation de la règle 74 (comparaison)


État 129

   75 comparaison: ea OPDIF ea .
   80 ea: ea . PLUS ea1
   81   | ea . MOINS ea1

    PLUS   décalage et aller à l'état 94
    MOINS  décalage et aller à l'état 95

    $défaut  réduction par utilisation de la règle 75 (comparaison)


État 130

   76 comparaison: ea OPINF ea .
   80 ea: ea . PLUS ea1
   81   | ea . MOINS ea1

    PLUS   décalage et aller à l'état 94
    MOINS  décalage et aller à l'état 95

    $défaut  réduction par utilisation de la règle 76 (comparaison)


État 131

   77 comparaison: ea OPSUP ea .
   80 ea: ea . PLUS ea1
   81   | ea . MOINS ea1

    PLUS   décalage et aller à l'état 94
    MOINS  décalage et aller à l'état 95

    $défaut  réduction par utilisation de la règle 77 (comparaison)


État 132

   78 comparaison: ea OPINFEG ea .
   80 ea: ea . PLUS ea1
   81   | ea . MOINS ea1

    PLUS   décalage et aller à l'état 94
    MOINS  décalage et aller à l'état 95

    $défaut  réduction par utilisation de la règle 78 (comparaison)


État 133

   79 comparaison: ea OPSUPEG ea .
   80 ea: ea . PLUS ea1
   81   | ea . MOINS ea1

    PLUS   décalage et aller à l'état 94
    MOINS  décalage et aller à l'état 95

    $défaut  réduction par utilisation de la règle 79 (comparaison)


État 134

   80 ea: ea PLUS ea1 .
   83 ea1: ea1 . MULT ea2
   84    | ea1 . DIV ea2
   85    | ea1 . MOD ea2

    MULT  décalage et aller à l'état 96
    DIV   décalage et aller à l'état 97
    MOD   décalage et aller à l'état 98

    $défaut  réduction par utilisation de la règle 80 (ea)


État 135

   81 ea: ea MOINS ea1 .
   83 ea1: ea1 . MULT ea2
   84    | ea1 . DIV ea2
   85    | ea1 . MOD ea2

    MULT  décalage et aller à l'état 96
    DIV   décalage et aller à l'état 97
    MOD   décalage et aller à l'état 98

    $défaut  réduction par utilisation de la règle 81 (ea)


État 136

   83 ea1: ea1 MULT ea2 .

    $défaut  réduction par utilisation de la règle 83 (ea1)


État 137

   84 ea1: ea1 DIV ea2 .

    $défaut  réduction par utilisation de la règle 84 (ea1)


État 138

   85 ea1: ea1 MOD ea2 .

    $défaut  réduction par utilisation de la règle 85 (ea1)


État 139

   52 condition: SI eb ALORS liste_instructions . SINON liste_instructions

    SINON  décalage et aller à l'état 154


État 140

   53 tant_que: TANT_QUE eb FAIRE liste_instructions .

    $défaut  réduction par utilisation de la règle 53 (tant_que)


État 141

   22 un_champ: IDF . DP nom_type

    DP  décalage et aller à l'état 155


État 142

   14 suite_declaration_type: STRUCT liste_champs . FSTRUCT
   21 liste_champs: liste_champs . PV un_champ

    PV       décalage et aller à l'état 156
    FSTRUCT  décalage et aller à l'état 157


État 143

   20 liste_champs: un_champ .

    $défaut  réduction par utilisation de la règle 20 (liste_champs)


État 144

   16 dimension: CO . liste_dimensions CF

    IDF           décalage et aller à l'état 17
    CHAINE        décalage et aller à l'état 42
    CSTE_ENTIERE  décalage et aller à l'état 43
    CSTE_REELE    décalage et aller à l'état 44
    PO            décalage et aller à l'état 45
    NON           décalage et aller à l'état 46
    VRAI          décalage et aller à l'état 47
    FAUX          décalage et aller à l'état 48
    UN_CARACTERE  décalage et aller à l'état 49

    liste_dimensions  aller à l'état 158
    une_dimension     aller à l'état 159
    appel             aller à l'état 51
    variable          aller à l'état 52
    expression        aller à l'état 160
    eb                aller à l'état 54
    eb1               aller à l'état 55
    eb2               aller à l'état 56
    eb3               aller à l'état 57
    comparaison       aller à l'état 58
    ea                aller à l'état 59
    ea1               aller à l'état 60
    ea2               aller à l'état 61


État 145

   15 suite_declaration_type: TABLEAU dimension . FLECHE nom_type

    FLECHE  décalage et aller à l'état 161


État 146

   29 type_simple: CHAINE CO . CSTE_ENTIERE CF

    CSTE_ENTIERE  décalage et aller à l'état 162


État 147

   37 un_param: IDF DP . type_simple

    ENTIER     décalage et aller à l'état 107
    REEL       décalage et aller à l'état 108
    BOOLEEN    décalage et aller à l'état 109
    CARACTERE  décalage et aller à l'état 110
    CHAINE     décalage et aller à l'état 111

    type_simple  aller à l'état 163


État 148

   36 liste_param: liste_param PV . un_param

    IDF  décalage et aller à l'état 114

    un_param  aller à l'état 164


État 149

   34 liste_parametres: PO liste_param PF .

    $défaut  réduction par utilisation de la règle 34 (liste_parametres)


État 150

   32 declaration_fonction: FONCTION IDF liste_parametres RETOURNE type_simple . corps

    DEBUT      décalage et aller à l'état 3
    TYPE       décalage et aller à l'état 4
    VARIABLE   décalage et aller à l'état 5
    PROCEDURE  décalage et aller à l'état 6
    FONCTION   décalage et aller à l'état 7

    corps                  aller à l'état 165
    liste_declarations     aller à l'état 9
    liste_instructions     aller à l'état 10
    declaration            aller à l'état 11
    declaration_type       aller à l'état 12
    declaration_variable   aller à l'état 13
    declaration_procedure  aller à l'état 14
    declaration_fonction   aller à l'état 15


État 151

   50 liste_args: liste_args V un_arg .

    $défaut  réduction par utilisation de la règle 50 (liste_args)


État 152

   56 suite_variable: CO liste_indices CF var_struct .

    $défaut  réduction par utilisation de la règle 56 (suite_variable)


État 153

   61 liste_indices: liste_indices V ea .
   80 ea: ea . PLUS ea1
   81   | ea . MOINS ea1

    PLUS   décalage et aller à l'état 94
    MOINS  décalage et aller à l'état 95

    $défaut  réduction par utilisation de la règle 61 (liste_indices)


État 154

   52 condition: SI eb ALORS liste_instructions SINON . liste_instructions

    DEBUT  décalage et aller à l'état 3

    liste_instructions  aller à l'état 166


État 155

   22 un_champ: IDF DP . nom_type

    IDF        décalage et aller à l'état 106
    ENTIER     décalage et aller à l'état 107
    REEL       décalage et aller à l'état 108
    BOOLEEN    décalage et aller à l'état 109
    CARACTERE  décalage et aller à l'état 110
    CHAINE     décalage et aller à l'état 111

    nom_type     aller à l'état 167
    type_simple  aller à l'état 113


État 156

   21 liste_champs: liste_champs PV . un_champ

    IDF  décalage et aller à l'état 141

    un_champ  aller à l'état 168


État 157

   14 suite_declaration_type: STRUCT liste_champs FSTRUCT .

    $défaut  réduction par utilisation de la règle 14 (suite_declaration_type)


État 158

   16 dimension: CO liste_dimensions . CF
   18 liste_dimensions: liste_dimensions . V une_dimension

    CF  décalage et aller à l'état 169
    V   décalage et aller à l'état 170


État 159

   17 liste_dimensions: une_dimension .

    $défaut  réduction par utilisation de la règle 17 (liste_dimensions)


État 160

   19 une_dimension: expression . P_P expression

    P_P  décalage et aller à l'état 171


État 161

   15 suite_declaration_type: TABLEAU dimension FLECHE . nom_type

    IDF        décalage et aller à l'état 106
    ENTIER     décalage et aller à l'état 107
    REEL       décalage et aller à l'état 108
    BOOLEEN    décalage et aller à l'état 109
    CARACTERE  décalage et aller à l'état 110
    CHAINE     décalage et aller à l'état 111

    nom_type     aller à l'état 172
    type_simple  aller à l'état 113


État 162

   29 type_simple: CHAINE CO CSTE_ENTIERE . CF

    CF  décalage et aller à l'état 173


État 163

   37 un_param: IDF DP type_simple .

    $défaut  réduction par utilisation de la règle 37 (un_param)


État 164

   36 liste_param: liste_param PV un_param .

    $défaut  réduction par utilisation de la règle 36 (liste_param)


État 165

   32 declaration_fonction: FONCTION IDF liste_parametres RETOURNE type_simple corps .

    $défaut  réduction par utilisation de la règle 32 (declaration_fonction)


État 166

   52 condition: SI eb ALORS liste_instructions SINON liste_instructions .

    $défaut  réduction par utilisation de la règle 52 (condition)


État 167

   22 un_champ: IDF DP nom_type .

    $défaut  réduction par utilisation de la règle 22 (un_champ)


État 168

   21 liste_champs: liste_champs PV un_champ .

    $défaut  réduction par utilisation de la règle 21 (liste_champs)


État 169

   16 dimension: CO liste_dimensions CF .

    $défaut  réduction par utilisation de la règle 16 (dimension)


État 170

   18 liste_dimensions: liste_dimensions V . une_dimension

    IDF           décalage et aller à l'état 17
    CHAINE        décalage et aller à l'état 42
    CSTE_ENTIERE  décalage et aller à l'état 43
    CSTE_REELE    décalage et aller à l'état 44
    PO            décalage et aller à l'état 45
    NON           décalage et aller à l'état 46
    VRAI          décalage et aller à l'état 47
    FAUX          décalage et aller à l'état 48
    UN_CARACTERE  décalage et aller à l'état 49

    une_dimension  aller à l'état 174
    appel          aller à l'état 51
    variable       aller à l'état 52
    expression     aller à l'état 160
    eb             aller à l'état 54
    eb1            aller à l'état 55
    eb2            aller à l'état 56
    eb3            aller à l'état 57
    comparaison    aller à l'état 58
    ea             aller à l'état 59
    ea1            aller à l'état 60
    ea2            aller à l'état 61


État 171

   19 une_dimension: expression P_P . expression

    IDF           décalage et aller à l'état 17
    CHAINE        décalage et aller à l'état 42
    CSTE_ENTIERE  décalage et aller à l'état 43
    CSTE_REELE    décalage et aller à l'état 44
    PO            décalage et aller à l'état 45
    NON           décalage et aller à l'état 46
    VRAI          décalage et aller à l'état 47
    FAUX          décalage et aller à l'état 48
    UN_CARACTERE  décalage et aller à l'état 49

    appel        aller à l'état 51
    variable     aller à l'état 52
    expression   aller à l'état 175
    eb           aller à l'état 54
    eb1          aller à l'état 55
    eb2          aller à l'état 56
    eb3          aller à l'état 57
    comparaison  aller à l'état 58
    ea           aller à l'état 59
    ea1          aller à l'état 60
    ea2          aller à l'état 61


État 172

   15 suite_declaration_type: TABLEAU dimension FLECHE nom_type .

    $défaut  réduction par utilisation de la règle 15 (suite_declaration_type)


État 173

   29 type_simple: CHAINE CO CSTE_ENTIERE CF .

    $défaut  réduction par utilisation de la règle 29 (type_simple)


État 174

   18 liste_dimensions: liste_dimensions V une_dimension .

    $défaut  réduction par utilisation de la règle 18 (liste_dimensions)


État 175

   19 une_dimension: expression P_P expression .

    $défaut  réduction par utilisation de la règle 19 (une_dimension)
